!!!SBtab DocumentName='E. coli central carbon metabolism - balanced parameters' SBtabVersion='1.0'			
!!SBtab TableID='Configuration' TableType='Config'			
!Option	!Value	!Comment	
algorithm	MDF	ECM, or MDF	
p_h	7.5		
ionic_strength	250 mM		
p_mg	3		
stdev_factor	1.96		
			
!!SBtab TableID='Reaction' TableType='Reaction'			
!ID	!ReactionFormula		
FTL	for + thf + atp <=> 10fthf + adp + pi		
MTHFC	10fthf <=> methf + h2o		
MTHFD	methf + nadph <=> mlthf + nadp		
rGCV	mlthf + nh3 + co2 + nadh <=> glycine + thf + nad		
SHMT	mlthf + glycine + h2o <=> serine + thf		
SDH	serine <=> pyr + nh3		
			
!!SBtab TableID='Compound' TableType='Compound'			
!ID	!Identifiers		
h2o	kegg:C00001		
atp	kegg:C00002		
nad	kegg:C00003		
nadh	kegg:C00004		
nadph	kegg:C00005		
nadp	kegg:C00006		
adp	kegg:C00008		
pi	kegg:C00009		
co2	kegg:C00011		
nh3	kegg:C00014		
pyr	kegg:C00022		
glycine	kegg:C00037		
for	kegg:C00058		
serine	kegg:C00065		
thf	kegg:C00101		
mlthf	kegg:C00143		
10fthf	kegg:C00234		
methf	kegg:C00445		
			
!!SBtab TableID='Flux' TableType='Quantity' Unit='mM/s'			
!QuantityType	!Reaction	!Value	
rate of reaction	FTL	2	
rate of reaction	MTHFC	2	
rate of reaction	MTHFD	2	
rate of reaction	rGCV	1	
rate of reaction	SHMT	1	
rate of reaction	SDH	1	
			
!!SBtab TableID='ConcentrationConstraint' TableType='Quantity' Unit='mM'			
!QuantityType	!Compound	!Min	!Max
concentration	pi	10	10
concentration	nadp	0.01	0.01
concentration	nadph	0.1	0.1
concentration	nadh	0.1	0.1
concentration	nad	1	1
concentration	atp	5	5
concentration	adp	0.5	0.5
concentration	co2	0.01	0.01
concentration	nh3	10	10
concentration	for	50	50
concentration	thf	0.001	10
concentration	methf	0.001	10
concentration	mlthf	0.001	10
concentration	10fthf	0.001	10
concentration	serine	0.001	10
concentration	pyr	0.001	10
concentration	glycine	0.001	10
